INDEX VERSION 1.131+C:\Users\Hazama\Downloads\floaty_workspace\Pangea2\.metadata\.plugins\org.eclipse.jdt.core
3376887871.index
3679244333.index
3301103175.index
142045716.index
4179973349.index
2514754272.index
1224145645.index
3153906895.index
810213375.index
1713295793.index
2694521234.index
3733943128.index
3294699524.index
2469864941.index
498090035.index
1305572849.index
4138845033.index
804188988.index
1964023605.index
3546047551.index
146530134.index
3202438514.index
2329068541.index
1703361771.index
2755349330.index
1633992518.index
160090888.index
3139170500.index
926914111.index
2161747041.index
3173990942.index
3255167960.index
2814112269.index
1385301624.index
4224721283.index
1488869965.index
2914552865.index
72535324.index
1880634949.index
462698783.index
2989840306.index
2833210716.index
2327184759.index
2114841613.index
3804388409.index
1605783244.index
2656000417.index
1985491801.index
267178198.index
4139317221.index
236362134.index
526058888.index
1180489742.index
11519064.index
4259616314.index
227832364.index
866495595.index
3688233713.index
892161629.index
3949402262.index
3055322441.index
2257004593.index
2783429075.index
1607282252.index
3169942997.index
1394848873.index
864383131.index
3222807182.index
1415469910.index
2619234003.index
3964918290.index
3525252183.index
2857209468.index
1665502131.index
1303704342.index
2994552673.index
1364928269.index
3741846667.index
3265884984.index
2177832682.index
742605769.index
2836874832.index
2162903192.index
4148029085.index
364889128.index
3037044610.index
1747029638.index
1110334383.index
368211088.index
403959373.index
4066697391.index
364405843.index
1665091810.index
2707737922.index
2287650936.index
1360853628.index
