<?xml version="1.0" encoding="UTF-8"?>
<session version="1.0">
<refactoring comment="Delete 8 resources" deleteContents="true" description="Delete 8 resources" element1="/adams_hospital" element2="/adams_police" element3="/domain_hospital" element4="/domain_police" element5="/persistence_hospital" element6="/persistence_police" element7="/web_hospital" element8="/web_police" flags="7" id="org.eclipse.ltk.core.refactoring.delete.resources" resources="8" stamp="1539617110908"/>
</session>