127.0.0.1 - - [05/Sep/2018:15:13:58 +0200] "GET / HTTP/1.1" 404 1074
0:0:0:0:0:0:0:1 - - [05/Sep/2018:15:14:47 +0200] "GET / HTTP/1.1" 404 1074
127.0.0.1 - - [05/Sep/2018:16:00:51 +0200] "GET / HTTP/1.1" 404 1074
0:0:0:0:0:0:0:1 - - [05/Sep/2018:16:00:52 +0200] "GET /adams/ HTTP/1.1" 404 1084
0:0:0:0:0:0:0:1 - - [05/Sep/2018:16:01:03 +0200] "GET / HTTP/1.1" 404 1074
0:0:0:0:0:0:0:1 - - [05/Sep/2018:16:01:08 +0200] "GET /home/ HTTP/1.1" 404 1083
0:0:0:0:0:0:0:1 - - [05/Sep/2018:16:01:12 +0200] "GET /adams/home/ HTTP/1.1" 404 1093
127.0.0.1 - - [05/Sep/2018:16:15:12 +0200] "GET / HTTP/1.1" 404 1074
0:0:0:0:0:0:0:1 - - [05/Sep/2018:16:15:13 +0200] "GET /adams/ HTTP/1.1" 404 1084
127.0.0.1 - - [05/Sep/2018:17:42:02 +0200] "GET / HTTP/1.1" 404 1074
0:0:0:0:0:0:0:1 - - [05/Sep/2018:17:42:03 +0200] "GET /adams/ HTTP/1.1" 404 307
0:0:0:0:0:0:0:1 - - [05/Sep/2018:17:42:10 +0200] "GET /adams/home HTTP/1.1" 404 307
0:0:0:0:0:0:0:1 - - [05/Sep/2018:17:42:13 +0200] "GET /adams/home/ HTTP/1.1" 404 1043
0:0:0:0:0:0:0:1 - - [05/Sep/2018:17:42:36 +0200] "GET /adams/home/ HTTP/1.1" 404 1043
