127.0.0.1 - - [17/Sep/2018:17:15:50 +0200] "GET / HTTP/1.1" 404 1074
0:0:0:0:0:0:0:1 - - [17/Sep/2018:17:15:51 +0200] "GET /web_police/ HTTP/1.1" 404 1089
0:0:0:0:0:0:0:1 - - [17/Sep/2018:17:16:11 +0200] "GET /web_police/getData HTTP/1.1" 404 1096
127.0.0.1 - - [17/Sep/2018:17:23:36 +0200] "GET / HTTP/1.1" 404 1074
0:0:0:0:0:0:0:1 - - [17/Sep/2018:17:23:37 +0200] "GET /web_police/ HTTP/1.1" 404 1089
0:0:0:0:0:0:0:1 - - [17/Sep/2018:17:23:44 +0200] "GET /web_police/getData HTTP/1.1" 404 1096
0:0:0:0:0:0:0:1 - - [17/Sep/2018:17:23:47 +0200] "GET /web_police/getData HTTP/1.1" 404 1096
127.0.0.1 - - [17/Sep/2018:17:24:28 +0200] "GET / HTTP/1.1" 404 1074
0:0:0:0:0:0:0:1 - - [17/Sep/2018:17:24:29 +0200] "GET /web_police/ HTTP/1.1" 404 1089
127.0.0.1 - - [17/Sep/2018:18:27:01 +0200] "GET / HTTP/1.1" 404 1074
0:0:0:0:0:0:0:1 - - [17/Sep/2018:18:27:01 +0200] "GET /web_police/ HTTP/1.1" 404 1089
0:0:0:0:0:0:0:1 - - [17/Sep/2018:18:27:13 +0200] "GET /web_police/getData HTTP/1.1" 404 1096
0:0:0:0:0:0:0:1 - - [17/Sep/2018:18:27:17 +0200] "GET /web_police/getData HTTP/1.1" 404 1096
0:0:0:0:0:0:0:1 - - [17/Sep/2018:18:27:17 +0200] "GET /web_police/getData HTTP/1.1" 404 1096
0:0:0:0:0:0:0:1 - - [17/Sep/2018:18:27:17 +0200] "GET /web_police/getData HTTP/1.1" 404 1096
